,0
0,Action
1,Adventure
2,Animals&Nature
3,Art
4,Board
5,Books
6,Business
7,Card
8,Casino
9,Casual
10,Comics&Cartoons
11,Education
12,Emoji&Expressions
13,Entertainment
14,Family
15,Finance
16,Food&Drink
17,Games
18,Gaming
19,Health&Fitness
20,Kids&Family
21,Lifestyle
22,Medical
23,Music
24,Navigation
25,News
26,People
27,Photo&Video
28,Productivity
29,Puzzle
30,Racing
31,Reference
32,RolePlaying
33,Shopping
34,Simulation
35,SocialNetworking
36,Sports
37,Sports&Activities
38,Stickers
39,Strategy
40,Travel
41,Trivia
42,Utilities
43,Word
44,Books
45,Business
46,Education
47,Entertainment
48,Finance
49,Food&Drink
50,Games
51,Health&Fitness
52,Lifestyle
53,Medical
54,Music
55,News
56,Productivity
57,Reference
58,Shopping
59,SocialNetworking
60,Sports
61,Stickers
62,Travel
63,Utilities
